Download Official Spatial Datasets of Peru • geoperu
…
prov_sf <- geoperu::get_prov_sf(c("ANTA", "Urubamba", "calca"))
prov_sf
#> Simple feature collection with 24 features and 4 fields
#> Geometry type: MULTIPOLYGON
#> Dimension:     XY
#> Bounding box:  xmin: -72.77286 ymin: -13.71406 xmax: -71.71952 ymax: -12.50659
#> Geodetic CRS:  WGS 84
#> # A tibble: 24 × 5
#>    departamento provincia distrito      capital                         geometry
#>  * <chr>        <chr>     <chr>         <chr>                 <MULTIPOLYGON [°]>
#>  1 CUSCO        CALCA     LARES         LARES          (((-71.90762 -13.02062, …
#>  2 CUSCO        CALCA     CALCA         CALCA          (((-71.87228 -13.18779, …
#>  3 CUSCO        CALCA     YANATILE      QUEBRADA HONDA (((-71.9039 -12.73066, -…
#>  4 CUSCO        ANTA      CHINCHAYPUJIO CHINCHAYPUJIO  (((-72.25802 -13.52288, …
#>  5 CUSCO        ANTA      ANTA          ANTA           (((-72.11767 -13.39649, …
#>  6 CUSCO        ANTA      PUCYURA       PUCYURA        (((-72.06076 -13.50311, …
#>  7 CUSCO        ANTA      CACHIMAYO     CACHIMAYO      (((-72.00248 -13.44256, …
#>  8 CUSCO        CALCA     SAN SALVADOR  SAN SALVADOR   (((-71.75679 -13.43086, …
#>  9 CUSCO        ANTA      MOLLEPATA     MOLLEPATA      (((-72.54716 -13.55565, …
#> 10 CUSCO        ANTA      LIMATAMBO     LIMATAMBO      (((-72.54668 -13.33261, …
#> # ℹ 14 more rows
…
